[gd_scene load_steps=5 format=3 uid="uid://dnc5ubqmxcwoi"]

[ext_resource type="Script" path="res://Scripts/main.gd" id="1_c8pir"]
[ext_resource type="PackedScene" uid="uid://csw2ycqpds08r" path="res://Scenes/level.tscn" id="2_sebov"]
[ext_resource type="PackedScene" uid="uid://dfkr55knyjftg" path="res://Scenes/environment.tscn" id="3_iu3l2"]
[ext_resource type="PackedScene" uid="uid://dhabr2otdrcv2" path="res://Scenes/player.tscn" id="4_8h06k"]

[node name="Main" type="Node"]
script = ExtResource("1_c8pir")

[node name="Level" parent="." instance=ExtResource("2_sebov")]

[node name="Environment" parent="." instance=ExtResource("3_iu3l2")]

[node name="Player" parent="." instance=ExtResource("4_8h06k")]
transform = Transform3D(1, 0, 0, 0, 1, 0, 0, 0, 1, 0, 4.84341, 0)
